Tests/Oracle/OracleSTL/2D/stabilization.vcd
$date
	Mon May 14, 16:42 STD 2007
$end

$timescale
	1ps
$end

$scope module top $end

$var wire 1 888 trigger $end
$var real 64 !!! var0 $end
$var real 64 "!! var1 $end
$var real 64 #!! var2 $end
$var real 64 $!! var3 $end
$var real 64 %!! var4 $end
$enddefinitions 	 $end

#0
0888
r0.0 !!!
r0.0 "!!
r0.0 #!!
r0.0 $!!
r0.0 %!!
#1
r0.0 !!!
r0.0 "!!
r0.0 #!!
r0.0 $!!
r0.0 %!!
#2
r0.0 !!!
r0.0 "!!
r0.0 #!!
r0.0 $!!
r0.0 %!!
#3
r0.0 !!!
r0.0 "!!
r0.0 #!!
r0.0 $!!
r0.0 %!!
#4
r0.0 !!!
r0.0 "!!
r0.0 #!!
r0.0 $!!
r0.0 %!!
#5
r0.0 !!!
r0.0 "!!
r0.0 #!!
r0.0 $!!
r0.0 %!!
#6
r0.0 !!!
r0.0 "!!
r0.0 #!!
r0.0 $!!
r0.0 %!!
#7
r0.0 !!!
r0.0 "!!
r0.0 #!!
r0.0 $!!
r0.0 %!!
#8
r0.0 !!!
r0.0 "!!
r0.0 #!!
r0.0 $!!
r0.0 %!!
#9
r0.0 !!!
r0.0 "!!
r0.0 #!!
r0.0 $!!
r0.0 %!!
#10
r0.0 !!!
r0.0 "!!
r0.0 #!!
r0.0 $!!
r0.0 %!!
#11
r0.0 !!!
r0.0 "!!
r0.0 #!!
r0.0 $!!
r0.0 %!!
#12
r0.0 !!!
r0.0 "!!
r0.0 #!!
r0.0 $!!
r0.0 %!!
#13
r0.0 !!!
r0.0 "!!
r0.0 #!!
r0.0 $!!
r0.0 %!!
#14
r0.0 !!!
r0.0 "!!
r0.0 #!!
r0.0 $!!
r0.0 %!!
#15
r0.0 !!!
r0.0 "!!
r0.0 #!!
r0.0 $!!
r0.0 %!!
#16
r0.0 !!!
r0.0 "!!
r0.0 #!!
r0.0 $!!
r0.0 %!!
#17
r0.0 !!!
r0.0 "!!
r0.0 #!!
r0.0 $!!
r0.0 %!!
#18
r0.0 !!!
r0.0 "!!
r0.0 #!!
r0.0 $!!
r0.0 %!!
#19
r0.0 !!!
r0.0 "!!
r0.0 #!!
r0.0 $!!
r0.0 %!!
#20
r0.0 !!!
r0.0 "!!
r0.0 #!!
r0.0 $!!
r0.0 %!!
#21
r0.0 !!!
r0.0 "!!
r0.0 #!!
r0.0 $!!
r0.0 %!!
#22
r0.0 !!!
r0.0 "!!
r0.0 #!!
r0.0 $!!
r0.0 %!!
#23
r0.0 !!!
r0.0 "!!
r0.0 #!!
r0.0 $!!
r0.0 %!!
#24
r0.0 !!!
r0.0 "!!
r0.0 #!!
r0.0 $!!
r0.0 %!!
#25
r0.0 !!!
r0.0 "!!
r0.0 #!!
r0.0 $!!
r0.0 %!!
#26
r0.0 !!!
r0.0 "!!
r0.0 #!!
r0.0 $!!
r0.0 %!!
#27
r0.0 !!!
r0.0 "!!
r0.0 #!!
r0.0 $!!
r0.0 %!!
#28
r0.0 !!!
r0.0 "!!
r0.0 #!!
r0.0 $!!
r0.0 %!!
#29
r0.0 !!!
r0.0 "!!
r0.0 #!!
r0.0 $!!
r0.0 %!!
#30
r0.0 !!!
r0.0 "!!
r0.0 #!!
r0.0 $!!
r0.0 %!!
#31
r0.0 !!!
r0.0 "!!
r0.0 #!!
r0.0 $!!
r0.0 %!!
#32
r0.0 !!!
r0.0 "!!
r0.0 #!!
r0.0 $!!
r0.0 %!!
#33
r0.0 !!!
r0.0 "!!
r0.0 #!!
r0.0 $!!
r0.0 %!!
#34
r0.0 !!!
r0.0 "!!
r0.0 #!!
r0.0 $!!
r0.0 %!!
#35
r0.0 !!!
r0.0 "!!
r0.0 #!!
r0.0 $!!
r0.0 %!!
#36
r0.0 !!!
r0.0 "!!
r0.0 #!!
r0.0 $!!
r0.0 %!!
#37
r0.0 !!!
r0.0 "!!
r0.0 #!!
r0.0 $!!
r0.0 %!!
#38
r0.0 !!!
r0.0 "!!
r0.0 #!!
r0.0 $!!
r0.0 %!!
#39
r0.0 !!!
r0.0 "!!
r0.0 #!!
r0.0 $!!
r0.0 %!!
#40
r0.0 !!!
r0.0 "!!
r0.0 #!!
r0.0 $!!
r0.0 %!!
#41
r0.0 !!!
r0.0 "!!
r0.0 #!!
r0.0 $!!
r0.0 %!!
#42
r0.0 !!!
r0.0 "!!
r0.0 #!!
r0.0 $!!
r0.0 %!!
#43
r0.0 !!!
r0.0 "!!
r0.0 #!!
r0.0 $!!
r0.0 %!!
#44
r0.0 !!!
r0.0 "!!
r0.0 #!!
r0.0 $!!
r0.0 %!!
#45
r0.0 !!!
r0.0 "!!
r0.0 #!!
r0.0 $!!
r0.0 %!!
#46
r0.0 !!!
r0.0 "!!
r0.0 #!!
r0.0 $!!
r0.0 %!!
#47
r0.0 !!!
r0.0 "!!
r0.0 #!!
r0.0 $!!
r0.0 %!!
#48
r0.0 !!!
r0.0 "!!
r0.0 #!!
r0.0 $!!
r0.0 %!!
#49
r0.0 !!!
r0.0 "!!
r0.0 #!!
r0.0 $!!
r0.0 %!!
#50
r0.0 !!!
r0.0 "!!
r0.0 #!!
r0.0 $!!
r0.0 %!!
#51
r0.0 !!!
r0.0 "!!
r0.0 #!!
r0.0 $!!
r0.0 %!!
#52
r0.0 !!!
r0.0 "!!
r0.0 #!!
r0.0 $!!
r0.0 %!!
#53
r0.0 !!!
r0.0 "!!
r0.0 #!!
r0.0 $!!
r0.0 %!!
#54
r0.0 !!!
r0.0 "!!
r0.0 #!!
r0.0 $!!
r0.0 %!!
#55
r0.0 !!!
r0.0 "!!
r0.0 #!!
r0.0 $!!
r0.0 %!!
#56
r0.0 !!!
r0.0 "!!
r0.0 #!!
r0.0 $!!
r0.0 %!!
#57
r0.0 !!!
r0.0 "!!
r0.0 #!!
r0.0 $!!
r0.0 %!!
#58
r0.0 !!!
r0.0 "!!
r0.0 #!!
r0.0 $!!
r0.0 %!!
#59
r0.0 !!!
r0.0 "!!
r0.0 #!!
r0.0 $!!
r0.0 %!!
#60
r0.0 !!!
r0.0 "!!
r0.0 #!!
r0.0 $!!
r0.0 %!!
#61
r0.0 !!!
r0.0 "!!
r0.0 #!!
r0.0 $!!
r0.0 %!!
#62
r0.0 !!!
r0.0 "!!
r0.0 #!!
r0.0 $!!
r0.0 %!!
#63
r0.0 !!!
r0.0 "!!
r0.0 #!!
r0.0 $!!
r0.0 %!!
#64
r0.0 !!!
r0.0 "!!
r0.0 #!!
r0.0 $!!
r0.0 %!!
#65
r0.0 !!!
r0.0 "!!
r0.0 #!!
r0.0 $!!
r0.0 %!!
#66
r0.0 !!!
r0.0 "!!
r0.0 #!!
r0.0 $!!
r0.0 %!!
#67
r0.0 !!!
r0.0 "!!
r0.0 #!!
r0.0 $!!
r0.0 %!!
#68
r0.0 !!!
r0.0 "!!
r0.0 #!!
r0.0 $!!
r0.0 %!!
#69
r0.0 !!!
r0.0 "!!
r0.0 #!!
r0.0 $!!
r0.0 %!!
#70
r0.0 !!!
r0.0 "!!
r0.0 #!!
r0.0 $!!
r0.0 %!!
#71
r0.0 !!!
r0.0 "!!
r0.0 #!!
r0.0 $!!
r0.0 %!!
#72
r0.0 !!!
r0.0 "!!
r0.0 #!!
r0.0 $!!
r0.0 %!!
#73
r0.0 !!!
r0.0 "!!
r0.0 #!!
r0.0 $!!
r0.0 %!!
#74
r0.0 !!!
r0.0 "!!
r0.0 #!!
r0.0 $!!
r0.0 %!!
#75
r0.0 !!!
r0.0 "!!
r0.0 #!!
r0.0 $!!
r0.0 %!!
#76
r0.0 !!!
r0.0 "!!
r0.0 #!!
r0.0 $!!
r0.0 %!!
#77
r0.0 !!!
r0.0 "!!
r0.0 #!!
r0.0 $!!
r0.0 %!!
#78
r0.0 !!!
r0.0 "!!
r0.0 #!!
r0.0 $!!
r0.0 %!!
#79
r0.0 !!!
r0.0 "!!
r0.0 #!!
r0.0 $!!
r0.0 %!!
#80
r0.0 !!!
r0.0 "!!
r0.0 #!!
r0.0 $!!
r0.0 %!!
#81
r0.0 !!!
r0.0 "!!
r0.0 #!!
r0.0 $!!
r0.0 %!!
#82
r0.0 !!!
r0.0 "!!
r0.0 #!!
r0.0 $!!
r0.0 %!!
#83
r0.0 !!!
r0.0 "!!
r0.0 #!!
r0.0 $!!
r0.0 %!!
#84
r0.0 !!!
r0.0 "!!
r0.0 #!!
r0.0 $!!
r0.0 %!!
#85
r0.0 !!!
r0.0 "!!
r0.0 #!!
r0.0 $!!
r0.0 %!!
#86
r0.0 !!!
r0.0 "!!
r0.0 #!!
r0.0 $!!
r0.0 %!!
#87
r0.0 !!!
r0.0 "!!
r0.0 #!!
r0.0 $!!
r0.0 %!!
#88
r0.0 !!!
r0.0 "!!
r0.0 #!!
r0.0 $!!
r0.0 %!!
#89
r0.0 !!!
r0.0 "!!
r0.0 #!!
r0.0 $!!
r0.0 %!!
#90
r0.0 !!!
r0.0 "!!
r0.0 #!!
r0.0 $!!
r0.0 %!!
#91
r0.0 !!!
r0.0 "!!
r0.0 #!!
r0.0 $!!
r0.0 %!!
#92
r0.0 !!!
r0.0 "!!
r0.0 #!!
r0.0 $!!
r0.0 %!!
#93
r0.0 !!!
r0.0 "!!
r0.0 #!!
r0.0 $!!
r0.0 %!!
#94
r0.0 !!!
r0.0 "!!
r0.0 #!!
r0.0 $!!
r0.0 %!!
#95
r0.0 !!!
r0.0 "!!
r0.0 #!!
r0.0 $!!
r0.0 %!!
#96
r0.0 !!!
r0.0 "!!
r0.0 #!!
r0.0 $!!
r0.0 %!!
#97
r0.0 !!!
r0.0 "!!
r0.0 #!!
r0.0 $!!
r0.0 %!!
#98
r0.0 !!!
r0.0 "!!
r0.0 #!!
r0.0 $!!
r0.0 %!!
#99
r0.0 !!!
r0.0 "!!
r0.0 #!!
r0.0 $!!
r0.0 %!!
#100
1888
r0.0000 !!!
r0.0000 "!!
r0.0000 #!!
r0.0000 $!!
r0.0000 %!!
#101
r0.0600 !!!
r0.2980 "!!
r0.5961 #!!
r0.3049 $!!
r0.1490 %!!
#102
r0.1197 !!!
r0.5914 "!!
r1.1828 #!!
r0.6069 $!!
r0.2957 %!!
#103
r0.1790 !!!
r0.8792 "!!
r1.7584 #!!
r0.9049 $!!
r0.4396 %!!
#104
r0.2377 !!!
r1.1603 "!!
r2.3207 #!!
r1.1978 $!!
r0.5802 %!!
#105
r0.2955 !!!
r1.4339 "!!
r2.8679 #!!
r1.4847 $!!
r0.7170 %!!
#106
r0.3523 !!!
r1.6991 "!!
r3.3982 #!!
r1.7645 $!!
r0.8495 %!!
#107
r0.4078 !!!
r1.9549 "!!
r3.9099 #!!
r2.0364 $!!
r0.9775 %!!
#108
r0.4618 !!!
r2.2007 "!!
r4.4014 #!!
r2.2992 $!!
r1.1003 %!!
#109
r0.5141 !!!
r2.4355 "!!
r4.8711 #!!
r2.5522 $!!
r1.2178 %!!
#110
r0.5646 !!!
r2.6588 "!!
r5.3176 #!!
r2.7946 $!!
r1.3294 %!!
#111
r0.6131 !!!
r2.8698 "!!
r5.7396 #!!
r3.0254 $!!
r1.4349 %!!
#112
r0.6594 !!!
r3.0679 "!!
r6.1358 #!!
r3.2440 $!!
r1.5339 %!!
#113
r0.7033 !!!
r3.2525 "!!
r6.5051 #!!
r3.4495 $!!
r1.6263 %!!
#114
r0.7446 !!!
r3.4232 "!!
r6.8465 #!!
r3.6415 $!!
r1.7116 %!!
#115
r0.7833 !!!
r3.5795 "!!
r7.1591 #!!
r3.8192 $!!
r1.7898 %!!
#116
r0.8192 !!!
r3.7210 "!!
r7.4421 #!!
r3.9821 $!!
r1.8605 %!!
#117
r0.8521 !!!
r3.8474 "!!
r7.6948 #!!
r4.1297 $!!
r1.9237 %!!
#118
r0.8820 !!!
r3.9583 "!!
r7.9167 #!!
r4.2615 $!!
r1.9792 %!!
#119
r0.9086 !!!
r4.0537 "!!
r8.1074 #!!
r4.3773 $!!
r2.0268 %!!
#120
r0.9320 !!!
r4.1332 "!!
r8.2664 #!!
r4.4766 $!!
r2.0666 %!!
#121
r0.9521 !!!
r4.1969 "!!
r8.3938 #!!
r4.5592 $!!
r2.0984 %!!
#122
r0.9687 !!!
r4.2446 "!!
r8.4892 #!!
r4.6249 $!!
r2.1223 %!!
#123
r0.9819 !!!
r4.2765 "!!
r8.5529 #!!
r4.6736 $!!
r2.1382 %!!
#124
r0.9915 !!!
r4.2925 "!!
r8.5849 #!!
r4.7052 $!!
r2.1462 %!!
#125
r0.9975 !!!
r4.2928 "!!
r8.5855 #!!
r4.7196 $!!
r2.1464 %!!
#126
r0.9999 !!!
r4.2775 "!!
r8.5551 #!!
r4.7170 $!!
r2.1388 %!!
#127
r0.9988 !!!
r4.2471 "!!
r8.4941 #!!
r4.6975 $!!
r2.1235 %!!
#128
r0.9940 !!!
r4.2016 "!!
r8.4032 #!!
r4.6612 $!!
r2.1008 %!!
#129
r0.9857 !!!
r4.1415 "!!
r8.2830 #!!
r4.6083 $!!
r2.0707 %!!
#130
r0.9738 !!!
r4.0671 "!!
r8.1343 #!!
r4.5392 $!!
r2.0336 %!!
#131
r0.9585 !!!
r3.9790 "!!
r7.9579 #!!
r4.4541 $!!
r1.9895 %!!
#132
r0.9396 !!!
r3.8775 "!!
r7.7550 #!!
r4.3535 $!!
r1.9387 %!!
#133
r0.9174 !!!
r3.7632 "!!
r7.5264 #!!
r4.2379 $!!
r1.8816 %!!
#134
r0.8919 !!!
r3.6367 "!!
r7.2733 #!!
r4.1077 $!!
r1.8183 %!!
#135
r0.8632 !!!
r3.4985 "!!
r6.9970 #!!
r3.9636 $!!
r1.7493 %!!
#136
r0.8314 !!!
r3.3494 "!!
r6.6988 #!!
r3.8060 $!!
r1.6747 %!!
#137
r0.7966 !!!
r3.1899 "!!
r6.3798 #!!
r3.6357 $!!
r1.5950 %!!
#138
r0.7589 !!!
r3.0208 "!!
r6.0416 #!!
r3.4533 $!!
r1.5104 %!!
#139
r0.7185 !!!
r2.8428 "!!
r5.6857 #!!
r3.2596 $!!
r1.4214 %!!
#140
r0.6755 !!!
r2.6567 "!!
r5.3134 #!!
r3.0553 $!!
r1.3283 %!!
#141
r0.6300 !!!
r2.4632 "!!
r4.9263 #!!
r2.8413 $!!
r1.2316 %!!
#142
r0.5823 !!!
r2.2631 "!!
r4.5261 #!!
r2.6183 $!!
r1.1315 %!!
#143
r0.5325 !!!
r2.0572 "!!
r4.1143 #!!
r2.3872 $!!
r1.0286 %!!
#144
r0.4808 !!!
r1.8463 "!!
r3.6926 #!!
r2.1490 $!!
r0.9231 %!!
#145
r0.4274 !!!
r1.6313 "!!
r3.2625 #!!
r1.9044 $!!
r0.8156 %!!
#146
r0.3724 !!!
r1.4129 "!!
r2.8258 #!!
r1.6544 $!!
r0.7065 %!!
#147
r0.3161 !!!
r1.1920 "!!
r2.3841 #!!
r1.4000 $!!
r0.5960 %!!
#148
r0.2586 !!!
r0.9695 "!!
r1.9390 #!!
r1.1421 $!!
r0.4848 %!!
#149
r0.2002 !!!
r0.7461 "!!
r1.4923 #!!
r0.8816 $!!
r0.3731 %!!
#150
r0.1411 !!!
r0.5227 "!!
r1.0454 #!!
r0.6195 $!!
r0.2614 %!!
#151
r0.0815 !!!
r0.3001 "!!
r0.6002 #!!
r0.3567 $!!
r0.1500 %!!
#152
r0.0216 !!!
r0.0790 "!!
r0.1580 #!!
r0.0942 $!!
r0.0395 %!!
#153
r-0.0384 !!!
r-0.1397 "!!
r-0.2794 #!!
r-0.1670 $!!
r-0.0698 %!!
#154
r-0.0982 !!!
r-0.3553 "!!
r-0.7106 #!!
r-0.4261 $!!
r-0.1776 %!!
#155
r-0.1577 !!!
r-0.5670 "!!
r-1.1341 #!!
r-0.6821 $!!
r-0.2835 %!!
#156
r-0.2167 !!!
r-0.7742 "!!
r-1.5484 #!!
r-0.9342 $!!
r-0.3871 %!!
#157
r-0.2748 !!!
r-0.9761 "!!
r-1.9522 #!!
r-1.1813 $!!
r-0.4881 %!!
#158
r-0.3320 !!!
r-1.1721 "!!
r-2.3441 #!!
r-1.4227 $!!
r-0.5860 %!!
#159
r-0.3880 !!!
r-1.3615 "!!
r-2.7229 #!!
r-1.6576 $!!
r-0.6807 %!!
#160
r-0.4425 !!!
r-1.5437 "!!
r-3.0874 #!!
r-1.8851 $!!
r-0.7718 %!!
#161
r-0.4955 !!!
r-1.7181 "!!
r-3.4363 #!!
r-2.1044 $!!
r-0.8591 %!!
#162
r-0.5467 !!!
r-1.8843 "!!
r-3.7686 #!!
r-2.3149 $!!
r-0.9422 %!!
#163
r-0.5959 !!!
r-2.0417 "!!
r-4.0834 #!!
r-2.5158 $!!
r-1.0209 %!!
#164
r-0.6430 !!!
r-2.1898 "!!
r-4.3797 #!!
r-2.7064 $!!
r-1.0949 %!!
#165
r-0.6878 !!!
r-2.3283 "!!
r-4.6566 #!!
r-2.8862 $!!
r-1.1641 %!!
#166
r-0.7301 !!!
r-2.4567 "!!
r-4.9133 #!!
r-3.0545 $!!
r-1.2283 %!!
#167
r-0.7697 !!!
r-2.5746 "!!
r-5.1493 #!!
r-3.2108 $!!
r-1.2873 %!!
#168
r-0.8066 !!!
r-2.6819 "!!
r-5.3638 #!!
r-3.3546 $!!
r-1.3410 %!!
#169
r-0.8406 !!!
r-2.7782 "!!
r-5.5564 #!!
r-3.4855 $!!
r-1.3891 %!!
#170
r-0.8716 !!!
r-2.8633 "!!
r-5.7267 #!!
r-3.6031 $!!
r-1.4317 %!!
#171
r-0.8994 !!!
r-2.9371 "!!
r-5.8742 #!!
r-3.7070 $!!
r-1.4685 %!!
#172
r-0.9240 !!!
r-2.9993 "!!
r-5.9987 #!!
r-3.7969 $!!
r-1.4997 %!!
#173
r-0.9453 !!!
r-3.0500 "!!
r-6.1000 #!!
r-3.8727 $!!
r-1.5250 %!!
#174
r-0.9631 !!!
r-3.0891 "!!
r-6.1782 #!!
r-3.9341 $!!
r-1.5445 %!!
#175
r-0.9775 !!!
r-3.1165 "!!
r-6.2330 #!!
r-3.9809 $!!
r-1.5583 %!!
#176
r-0.9884 !!!
r-3.1323 "!!
r-6.2647 #!!
r-4.0132 $!!
r-1.5662 %!!
#177
r-0.9957 !!!
r-3.1367 "!!
r-6.2734 #!!
r-4.0308 $!!
r-1.5683 %!!
#178
r-0.9995 !!!
r-3.1296 "!!
r-6.2593 #!!
r-4.0338 $!!
r-1.5648 %!!
#179
r-0.9996 !!!
r-3.1113 "!!
r-6.2227 #!!
r-4.0223 $!!
r-1.5557 %!!
#180
r-0.9962 !!!
r-3.0821 "!!
r-6.1641 #!!
r-3.9964 $!!
r-1.5410 %!!
#181
r-0.9891 !!!
r-3.0420 "!!
r-6.0839 #!!
r-3.9563 $!!
r-1.5210 %!!
#182
r-0.9785 !!!
r-2.9914 "!!
r-5.9827 #!!
r-3.9022 $!!
r-1.4957 %!!
#183
r-0.9644 !!!
r-2.9306 "!!
r-5.8611 #!!
r-3.8343 $!!
r-1.4653 %!!
#184
r-0.9468 !!!
r-2.8599 "!!
r-5.7198 #!!
r-3.7531 $!!
r-1.4299 %!!
#185
r-0.9258 !!!
r-2.7797 "!!
r-5.5595 #!!
r-3.6589 $!!
r-1.3899 %!!
#186
r-0.9015 !!!
r-2.6905 "!!
r-5.3810 #!!
r-3.5521 $!!
r-1.3452 %!!
#187
r-0.8739 !!!
r-2.5926 "!!
r-5.1852 #!!
r-3.4331 $!!
r-1.2963 %!!
#188
r-0.8432 !!!
r-2.4865 "!!
r-4.9730 #!!
r-3.3025 $!!
r-1.2432 %!!
#189
r-0.8094 !!!
r-2.3727 "!!
r-4.7453 #!!
r-3.1608 $!!
r-1.1863 %!!
#190
r-0.7728 !!!
r-2.2516 "!!
r-4.5033 #!!
r-3.0086 $!!
r-1.1258 %!!
#191
r-0.7333 !!!
r-2.1239 "!!
r-4.2478 #!!
r-2.8464 $!!
r-1.0620 %!!
#192
r-0.6912 !!!
r-1.9900 "!!
r-3.9801 #!!
r-2.6750 $!!
r-0.9950 %!!
#193
r-0.6467 !!!
r-1.8506 "!!
r-3.7011 #!!
r-2.4950 $!!
r-0.9253 %!!
#194
r-0.5997 !!!
r-1.7061 "!!
r-3.4121 #!!
r-2.3071 $!!
r-0.8530 %!!
#195
r-0.5507 !!!
r-1.5571 "!!
r-3.1143 #!!
r-2.1120 $!!
r-0.7786 %!!
#196
r-0.4996 !!!
r-1.4043 "!!
r-2.8087 #!!
r-1.9105 $!!
r-0.7022 %!!
#197
r-0.4468 !!!
r-1.2483 "!!
r-2.4966 #!!
r-1.7033 $!!
r-0.6242 %!!
#198
r-0.3924 !!!
r-1.0896 "!!
r-2.1793 #!!
r-1.4913 $!!
r-0.5448 %!!
#199
r-0.3365 !!!
r-0.9289 "!!
r-1.8578 #!!
r-1.2751 $!!
r-0.4645 %!!
#200
0888
r-0.2794 !!!
r-0.7667 "!!
r-1.5335 #!!
r-1.0557 $!!
r-0.3834 %!!
#201
r-0.2213 !!!
r-0.6037 "!!
r-1.2075 #!!
r-0.8337 $!!
r-0.3019 %!!
#202
r-0.1625 !!!
r-0.4405 "!!
r-0.8810 #!!
r-0.6101 $!!
r-0.2202 %!!
#203
r-0.1030 !!!
r-0.2776 "!!
r-0.5552 #!!
r-0.3857 $!!
r-0.1388 %!!
#204
r-0.0432 !!!
r-0.1157 "!!
r-0.2313 #!!
r-0.1612 $!!
r-0.0578 %!!
#205
r0.0168 !!!
r0.0448 "!!
r0.0895 #!!
r0.0626 $!!
r0.0224 %!!
#206
r0.0767 !!!
r0.2031 "!!
r0.4063 #!!
r0.2848 $!!
r0.1016 %!!
#207
r0.1364 !!!
r0.3589 "!!
r0.7177 #!!
r0.5046 $!!
r0.1794 %!!
#208
r0.1955 !!!
r0.5114 "!!
r1.0229 #!!
r0.7213 $!!
r0.2557 %!!
#209
r0.2540 !!!
r0.6604 "!!
r1.3207 #!!
r0.9341 $!!
r0.3302 %!!
#210
r0.3115 !!!
r0.8051 "!!
r1.6102 #!!
r1.1423 $!!
r0.4026 %!!
#211
r0.3680 !!!
r0.9452 "!!
r1.8904 #!!
r1.3451 $!!
r0.4726 %!!
#212
r0.4231 !!!
r1.0802 "!!
r2.1605 #!!
r1.5419 $!!
r0.5401 %!!
#213
r0.4766 !!!
r1.2098 "!!
r2.4195 #!!
r1.7319 $!!
r0.6049 %!!
#214
r0.5285 !!!
r1.3334 "!!
r2.6667 #!!
r1.9146 $!!
r0.6667 %!!
#215
r0.5784 !!!
r1.4507 "!!
r2.9013 #!!
r2.0893 $!!
r0.7253 %!!
#216
r0.6263 !!!
r1.5613 "!!
r3.1226 #!!
r2.2554 $!!
r0.7807 %!!
#217
r0.6719 !!!
r1.6650 "!!
r3.3301 #!!
r2.4124 $!!
r0.8325 %!!
#218
r0.7151 !!!
r1.7615 "!!
r3.5229 #!!
r2.5599 $!!
r0.8807 %!!
#219
r0.7558 !!!
r1.8504 "!!
r3.7008 #!!
r2.6972 $!!
r0.9252 %!!
#220
r0.7937 !!!
r1.9316 "!!
r3.8632 #!!
r2.8240 $!!
r0.9658 %!!
#221
r0.8287 !!!
r2.0048 "!!
r4.0097 #!!
r2.9399 $!!
r1.0024 %!!
#222
r0.8608 !!!
r2.0700 "!!
r4.1399 #!!
r3.0445 $!!
r1.0350 %!!
#223
r0.8898 !!!
r2.1268 "!!
r4.2537 #!!
r3.1375 $!!
r1.0634 %!!
#224
r0.9155 !!!
r2.1753 "!!
r4.3507 #!!
r3.2187 $!!
r1.0877 %!!
#225
r0.9380 !!!
r2.2154 "!!
r4.4308 #!!
r3.2879 $!!
r1.1077 %!!
#226
r0.9571 !!!
r2.2470 "!!
r4.4940 #!!
r3.3447 $!!
r1.1235 %!!
#227
r0.9728 !!!
r2.2701 "!!
r4.5401 #!!
r3.3893 $!!
r1.1350 %!!
#228
r0.9849 !!!
r2.2847 "!!
r4.5694 #!!
r3.4213 $!!
r1.1423 %!!
#229
r0.9935 !!!
r2.2909 "!!
r4.5817 #!!
r3.4409 $!!
r1.1454 %!!
#230
r0.9985 !!!
r2.2887 "!!
r4.5774 #!!
r3.4480 $!!
r1.1443 %!!
#231
r1.0000 !!!
r2.2783 "!!
r4.5566 #!!
r3.4426 $!!
r1.1391 %!!
#232
r0.9978 !!!
r2.2598 "!!
r4.5195 #!!
r3.4249 $!!
r1.1299 %!!
#233
r0.9921 !!!
r2.2333 "!!
r4.4666 #!!
r3.3949 $!!
r1.1166 %!!
#234
r0.9827 !!!
r2.1991 "!!
r4.3981 #!!
r3.3529 $!!
r1.0995 %!!
#235
r0.9699 !!!
r2.1573 "!!
r4.3146 #!!
r3.2992 $!!
r1.0787 %!!
#236
r0.9535 !!!
r2.1083 "!!
r4.2165 #!!
r3.2338 $!!
r1.0541 %!!
#237
r0.9338 !!!
r2.0522 "!!
r4.1044 #!!
r3.1573 $!!
r1.0261 %!!
#238
r0.9106 !!!
r1.9893 "!!
r3.9787 #!!
r3.0698 $!!
r0.9947 %!!
#239
r0.8842 !!!
r1.9201 "!!
r3.8402 #!!
r2.9718 $!!
r0.9600 %!!
#240
r0.8546 !!!
r1.8447 "!!
r3.6894 #!!
r2.8637 $!!
r0.9223 %!!
#241
r0.8219 !!!
r1.7635 "!!
r3.5271 #!!
r2.7460 $!!
r0.8818 %!!
#242
r0.7863 !!!
r1.6770 "!!
r3.3540 #!!
r2.6190 $!!
r0.8385 %!!
#243
r0.7478 !!!
r1.5854 "!!
r3.1708 #!!
r2.4835 $!!
r0.7927 %!!
#244
r0.7067 !!!
r1.4892 "!!
r2.9784 #!!
r2.3398 $!!
r0.7446 %!!
#245
r0.6630 !!!
r1.3888 "!!
r2.7775 #!!
r2.1885 $!!
r0.6944 %!!
#246
r0.6169 !!!
r1.2845 "!!
r2.5690 #!!
r2.0303 $!!
r0.6422 %!!
#247
r0.5686 !!!
r1.1768 "!!
r2.3537 #!!
r1.8657 $!!
r0.5884 %!!
#248
r0.5182 !!!
r1.0662 "!!
r2.1324 #!!
r1.6954 $!!
r0.5331 %!!
#249
r0.4660 !!!
r0.9530 "!!
r1.9061 #!!
r1.5200 $!!
r0.4765 %!!
#250
r0.4121 !!!
r0.8378 "!!
r1.6755 #!!
r1.3402 $!!
r0.4189 %!!
#251
r0.3567 !!!
r0.7209 "!!
r1.4417 #!!
r1.1566 $!!
r0.3604 %!!
#252
r0.3001 !!!
r0.6027 "!!
r1.2055 #!!
r0.9700 $!!
r0.3014 %!!
#253
r0.2423 !!!
r0.4839 "!!
r0.9677 #!!
r0.7810 $!!
r0.2419 %!!
#254
r0.1837 !!!
r0.3646 "!!
r0.7293 #!!
r0.5903 $!!
r0.1823 %!!
#255
r0.1245 !!!
r0.2455 "!!
r0.4910 #!!
r0.3987 $!!
r0.1228 %!!
#256
r0.0647 !!!
r0.1269 "!!
r0.2539 #!!
r0.2067 $!!
r0.0635 %!!
#257
r0.0048 !!!
r0.0093 "!!
r0.0186 #!!
r0.0152 $!!
r0.0047 %!!
#258
r-0.0552 !!!
r-0.1069 "!!
r-0.2139 #!!
r-0.1752 $!!
r-0.0535 %!!
#259
r-0.1150 !!!
r-0.2214 "!!
r-0.4429 #!!
r-0.3639 $!!
r-0.1107 %!!
#260
r-0.1743 !!!
r-0.3337 "!!
r-0.6675 #!!
r-0.5501 $!!
r-0.1669 %!!
#261
r-0.2331 !!!
r-0.4435 "!!
r-0.8870 #!!
r-0.7333 $!!
r-0.2218 %!!
#262
r-0.2910 !!!
r-0.5504 "!!
r-1.1007 #!!
r-0.9127 $!!
r-0.2752 %!!
#263
r-0.3478 !!!
r-0.6540 "!!
r-1.3079 #!!
r-1.0877 $!!
r-0.3270 %!!
#264
r-0.4034 !!!
r-0.7540 "!!
r-1.5079 #!!
r-1.2578 $!!
r-0.3770 %!!
#265
r-0.4575 !!!
r-0.8500 "!!
r-1.7001 #!!
r-1.4224 $!!
r-0.4250 %!!
#266
r-0.5100 !!!
r-0.9419 "!!
r-1.8838 #!!
r-1.5808 $!!
r-0.4710 %!!
#267
r-0.5607 !!!
r-1.0293 "!!
r-2.0586 #!!
r-1.7327 $!!
r-0.5146 %!!
#268
r-0.6093 !!!
r-1.1119 "!!
r-2.2238 #!!
r-1.8773 $!!
r-0.5559 %!!
#269
r-0.6558 !!!
r-1.1895 "!!
r-2.3790 #!!
r-2.0144 $!!
r-0.5947 %!!
#270
r-0.6999 !!!
r-1.2619 "!!
r-2.5237 #!!
r-2.1434 $!!
r-0.6309 %!!
#271
r-0.7414 !!!
r-1.3288 "!!
r-2.6576 #!!
r-2.2639 $!!
r-0.6644 %!!
#272
r-0.7803 !!!
r-1.3902 "!!
r-2.7803 #!!
r-2.3755 $!!
r-0.6951 %!!
#273
r-0.8164 !!!
r-1.4458 "!!
r-2.8915 #!!
r-2.4780 $!!
r-0.7229 %!!
#274
r-0.8496 !!!
r-1.4955 "!!
r-2.9910 #!!
r-2.5709 $!!
r-0.7477 %!!
#275
r-0.8797 !!!
r-1.5392 "!!
r-3.0784 #!!
r-2.6540 $!!
r-0.7696 %!!
#276
r-0.9066 !!!
r-1.5768 "!!
r-3.1537 #!!
r-2.7270 $!!
r-0.7884 %!!
#277
r-0.9303 !!!
r-1.6083 "!!
r-3.2166 #!!
r-2.7899 $!!
r-0.8042 %!!
#278
r-0.9506 !!!
r-1.6336 "!!
r-3.2672 #!!
r-2.8423 $!!
r-0.8168 %!!
#279
r-0.9675 !!!
r-1.6527 "!!
r-3.3054 #!!
r-2.8841 $!!
r-0.8264 %!!
#280
r-0.9809 !!!
r-1.6656 "!!
r-3.3312 #!!
r-2.9154 $!!
r-0.8328 %!!
